<?xml version="1.0" encoding="UTF-8" standalone="no"?>
<!-- Created with Inkscape (http://www.inkscape.org/) -->

<svg
   xmlns:dc="http://purl.org/dc/elements/1.1/"
   xmlns:cc="http://creativecommons.org/ns#"
   xmlns:rdf="http://www.w3.org/1999/02/22-rdf-syntax-ns#"
   xmlns:svg="http://www.w3.org/2000/svg"
   xmlns="http://www.w3.org/2000/svg"
   xmlns:sodipodi="http://sodipodi.sourceforge.net/DTD/sodipodi-0.dtd"
   xmlns:inkscape="http://www.inkscape.org/namespaces/inkscape"
   width="210mm"
   height="297mm"
   viewBox="0 0 744.09448819 1052.3622047"
   id="svg2"
   version="1.1"
   inkscape:version="0.91 r13725"
   sodipodi:docname="dessin-1.svg">
  <defs
     id="defs4">
    <inkscape:path-effect
       effect="powerstroke"
       id="path-effect4272"
       is_visible="true"
       offset_points="0,0.5"
       sort_points="true"
       interpolator_type="CubicBezierJohan"
       interpolator_beta="0.2"
       start_linecap_type="zerowidth"
       linejoin_type="round"
       miter_limit="4"
       end_linecap_type="zerowidth"
       cusp_linecap_type="round" />
    <inkscape:perspective
       sodipodi:type="inkscape:persp3d"
       inkscape:vp_x="-150.47481 : 1502.9395 : 1"
       inkscape:vp_y="-948.25183 : -317.51913 : 0"
       inkscape:vp_z="-268.38224 : 1199.6964 : 1"
       inkscape:persp3d-origin="147.11241 : 511.23437 : 1"
       id="perspective4266" />
    <inkscape:path-effect
       effect="vonkoch"
       id="path-effect4264"
       is_visible="true"
       ref_path="m 76.731282,591.07076 258.614268,0"
       generator="m 76.731282,763.46305 86.204758,0 m 86.20475,0 86.20476,0"
       similar_only="false"
       nbgenerations="1"
       drawall="true"
       maxComplexity="1000" />
    <inkscape:perspective
       sodipodi:type="inkscape:persp3d"
       inkscape:vp_x="862.67028 : 318.08967 : 1"
       inkscape:vp_y="0 : 1000 : 0"
       inkscape:vp_z="744.09449 : 526.1811 : 1"
       inkscape:persp3d-origin="372.04724 : 350.7874 : 1"
       id="perspective4136" />
  </defs>
  <sodipodi:namedview
     id="base"
     pagecolor="#ffffff"
     bordercolor="#666666"
     borderopacity="1.0"
     inkscape:pageopacity="0.0"
     inkscape:pageshadow="2"
     inkscape:zoom="0.49497475"
     inkscape:cx="418.1299"
     inkscape:cy="667.47497"
     inkscape:document-units="px"
     inkscape:current-layer="layer1"
     showgrid="false"
     inkscape:window-width="1280"
     inkscape:window-height="751"
     inkscape:window-x="0"
     inkscape:window-y="1"
     inkscape:window-maximized="1" />
  <metadata
     id="metadata7">
    <rdf:RDF>
      <cc:Work
         rdf:about="">
        <dc:format>image/svg+xml</dc:format>
        <dc:type
           rdf:resource="http://purl.org/dc/dcmitype/StillImage" />
        <dc:title></dc:title>
      </cc:Work>
    </rdf:RDF>
  </metadata>
  <g
     inkscape:label="Calque 1"
     inkscape:groupmode="layer"
     id="layer1">
    <g
       sodipodi:type="inkscape:box3d"
       id="g4152"
       style="fill:#000000;stroke-width:0.1;stroke-miterlimit:4;stroke-dasharray:none"
       inkscape:perspectiveID="#perspective4136"
       inkscape:corner0="1.877406 : 1.4691511 : 0 : 1"
       inkscape:corner7="1.5937181 : 1.058632 : 0.25 : 1">
      <path
         sodipodi:type="inkscape:box3dside"
         id="path4162"
         style="fill:#afafde;fill-rule:evenodd;stroke:none;stroke-width:1px;stroke-linecap:butt;stroke-linejoin:round;stroke-opacity:1"
         inkscape:box3dsidetype="13"
         d="m 692.16148,354.997 -18.6494,-41.48326 6.20511,18.69625 16.59573,36.47121 z"
         points="673.51208,313.51374 679.71719,332.20999 696.31292,368.6812 692.16148,354.997 " />
      <path
         sodipodi:type="inkscape:box3dside"
         id="path4158"
         style="fill:#8686bf;fill-rule:evenodd;stroke:none;stroke-width:1px;stroke-linecap:butt;stroke-linejoin:round;stroke-opacity:1"
         inkscape:box3dsidetype="3"
         d="m 692.16148,212.32715 -18.6494,-57.08777 0,158.27436 18.6494,41.48326 z"
         points="673.51208,155.23938 673.51208,313.51374 692.16148,354.997 692.16148,212.32715 " />
      <path
         sodipodi:type="inkscape:box3dside"
         id="path4154"
         style="fill:#353564;fill-rule:evenodd;stroke:none;stroke-width:1px;stroke-linecap:butt;stroke-linejoin:round;stroke-opacity:1"
         inkscape:box3dsidetype="6"
         d="m 692.16148,212.32715 0,142.66985 4.15144,13.6842 0,-131.26505 z"
         points="692.16148,354.997 696.31292,368.6812 696.31292,237.41615 692.16148,212.32715 " />
      <path
         sodipodi:type="inkscape:box3dside"
         id="path4156"
         style="fill:#4d4d9f;fill-rule:evenodd;stroke:none;stroke-width:1px;stroke-linecap:butt;stroke-linejoin:round;stroke-opacity:1"
         inkscape:box3dsidetype="5"
         d="m 692.16148,212.32715 -18.6494,-57.08777 6.20511,32.61063 16.59573,49.56614 z"
         points="673.51208,155.23938 679.71719,187.85001 696.31292,237.41615 692.16148,212.32715 " />
      <path
         sodipodi:type="inkscape:box3dside"
         id="path4164"
         style="fill:#e9e9ff;fill-rule:evenodd;stroke:none;stroke-width:1px;stroke-linecap:butt;stroke-linejoin:round;stroke-opacity:1"
         inkscape:box3dsidetype="11"
         d="m 696.31292,237.41615 -16.59573,-49.56614 0,144.35998 16.59573,36.47121 z"
         points="679.71719,187.85001 679.71719,332.20999 696.31292,368.6812 696.31292,237.41615 " />
      <path
         sodipodi:type="inkscape:box3dside"
         id="path4160"
         style="fill:#d7d7ff;fill-rule:evenodd;stroke:none;stroke-width:1px;stroke-linecap:butt;stroke-linejoin:round;stroke-opacity:1"
         inkscape:box3dsidetype="14"
         d="m 673.51208,155.23938 0,158.27436 6.20511,18.69625 0,-144.35998 z"
         points="673.51208,313.51374 679.71719,332.20999 679.71719,187.85001 673.51208,155.23938 " />
    </g>
    <g
       sodipodi:type="inkscape:box3d"
       id="g4166"
       style="fill:#000000;stroke-width:0.1;stroke-miterlimit:4;stroke-dasharray:none"
       inkscape:perspectiveID="#perspective4136"
       inkscape:corner0="1.5937181 : 0.84378783 : 0 : 1"
       inkscape:corner7="0.77071141 : 0.12371365 : 0.25 : 1">
      <path
         sodipodi:type="inkscape:box3dside"
         id="path4172"
         style="fill:#8686bf;fill-rule:evenodd;stroke:none;stroke-width:1px;stroke-linecap:butt;stroke-linejoin:round;stroke-opacity:1"
         inkscape:box3dsidetype="3"
         d="m 673.51208,396.34625 -87.9186,-157.06433 0,406.65812 87.9186,28.02858 z"
         points="585.59348,239.28192 585.59348,645.94004 673.51208,673.96862 673.51208,396.34625 " />
      <path
         sodipodi:type="inkscape:box3dside"
         id="path4168"
         style="fill:#353564;fill-rule:evenodd;stroke:none;stroke-width:1px;stroke-linecap:butt;stroke-linejoin:round;stroke-opacity:1"
         inkscape:box3dsidetype="6"
         d="m 673.51208,396.34625 0,277.62237 6.20511,-12.99246 0,-253.21573 z"
         points="673.51208,673.96862 679.71719,660.97616 679.71719,407.76043 673.51208,396.34625 " />
      <path
         sodipodi:type="inkscape:box3dside"
         id="path4170"
         style="fill:#4d4d9f;fill-rule:evenodd;stroke:none;stroke-width:1px;stroke-linecap:butt;stroke-linejoin:round;stroke-opacity:1"
         inkscape:box3dsidetype="5"
         d="m 673.51208,396.34625 -87.9186,-157.06433 19.60956,35.49483 74.51415,132.98368 z"
         points="585.59348,239.28192 605.20304,274.77675 679.71719,407.76043 673.51208,396.34625 " />
      <path
         sodipodi:type="inkscape:box3dside"
         id="path4178"
         style="fill:#e9e9ff;fill-rule:evenodd;stroke:none;stroke-width:1px;stroke-linecap:butt;stroke-linejoin:round;stroke-opacity:1"
         inkscape:box3dsidetype="11"
         d="m 679.71719,407.76043 -74.51415,-132.98368 0,356.34685 74.51415,29.85256 z"
         points="605.20304,274.77675 605.20304,631.1236 679.71719,660.97616 679.71719,407.76043 " />
      <path
         sodipodi:type="inkscape:box3dside"
         id="path4176"
         style="fill:#afafde;fill-rule:evenodd;stroke:none;stroke-width:1px;stroke-linecap:butt;stroke-linejoin:round;stroke-opacity:1"
         inkscape:box3dsidetype="13"
         d="m 673.51208,673.96862 -87.9186,-28.02858 19.60956,-14.81644 74.51415,29.85256 z"
         points="585.59348,645.94004 605.20304,631.1236 679.71719,660.97616 673.51208,673.96862 " />
      <path
         sodipodi:type="inkscape:box3dside"
         id="path4174"
         style="fill:#d7d7ff;fill-rule:evenodd;stroke:none;stroke-width:1px;stroke-linecap:butt;stroke-linejoin:round;stroke-opacity:1"
         inkscape:box3dsidetype="14"
         d="m 585.59348,239.28192 0,406.65812 19.60956,-14.81644 0,-356.34685 z"
         points="585.59348,645.94004 605.20304,631.1236 605.20304,274.77675 585.59348,239.28192 " />
    </g>
    <g
       sodipodi:type="inkscape:box3d"
       id="g4180"
       style="fill:#000000;stroke-width:0.1;stroke-miterlimit:4;stroke-dasharray:none"
       inkscape:perspectiveID="#perspective4136"
       inkscape:corner0="0.60133903 : 0.95039609 : 0 : 1"
       inkscape:corner7="-0.03076849 : 0.32333858 : 0.25 : 1">
      <path
         sodipodi:type="inkscape:box3dside"
         id="path4186"
         style="fill:#8686bf;fill-rule:evenodd;stroke:none;stroke-width:1px;stroke-linecap:butt;stroke-linejoin:round;stroke-opacity:1"
         inkscape:box3dsidetype="3"
         d="m 556.28729,120.3527 -199.815,-400.38251 0,646.96359 199.815,145.00214 z"
         points="356.47229,-280.02981 356.47229,366.93378 556.28729,511.93592 556.28729,120.3527 " />
      <path
         sodipodi:type="inkscape:box3dside"
         id="path4182"
         style="fill:#353564;fill-rule:evenodd;stroke:none;stroke-width:1px;stroke-linecap:butt;stroke-linejoin:round;stroke-opacity:1"
         inkscape:box3dsidetype="6"
         d="m 556.28729,120.3527 0,391.58322 25.36099,1.92364 0,-338.70485 z"
         points="556.28729,511.93592 581.64828,513.85956 581.64828,175.15471 556.28729,120.3527 " />
      <path
         sodipodi:type="inkscape:box3dside"
         id="path4184"
         style="fill:#4d4d9f;fill-rule:evenodd;stroke:none;stroke-width:1px;stroke-linecap:butt;stroke-linejoin:round;stroke-opacity:1"
         inkscape:box3dsidetype="5"
         d="m 556.28729,120.3527 -199.815,-400.38251 79.48084,165.31129 145.69515,289.87323 z"
         points="356.47229,-280.02981 435.95313,-114.71852 581.64828,175.15471 556.28729,120.3527 " />
      <path
         sodipodi:type="inkscape:box3dside"
         id="path4192"
         style="fill:#e9e9ff;fill-rule:evenodd;stroke:none;stroke-width:1px;stroke-linecap:butt;stroke-linejoin:round;stroke-opacity:1"
         inkscape:box3dsidetype="11"
         d="m 581.64828,175.15471 -145.69515,-289.87323 0,514.30552 145.69515,114.27256 z"
         points="435.95313,-114.71852 435.95313,399.587 581.64828,513.85956 581.64828,175.15471 " />
      <path
         sodipodi:type="inkscape:box3dside"
         id="path4190"
         style="fill:#afafde;fill-rule:evenodd;stroke:none;stroke-width:1px;stroke-linecap:butt;stroke-linejoin:round;stroke-opacity:1"
         inkscape:box3dsidetype="13"
         d="M 556.28729,511.93592 356.47229,366.93378 435.95313,399.587 581.64828,513.85956 Z"
         points="356.47229,366.93378 435.95313,399.587 581.64828,513.85956 556.28729,511.93592 " />
      <path
         sodipodi:type="inkscape:box3dside"
         id="path4188"
         style="fill:#d7d7ff;fill-rule:evenodd;stroke:none;stroke-width:1px;stroke-linecap:butt;stroke-linejoin:round;stroke-opacity:1"
         inkscape:box3dsidetype="14"
         d="m 356.47229,-280.02981 0,646.96359 79.48084,32.65322 0,-514.30552 z"
         points="356.47229,366.93378 435.95313,399.587 435.95313,-114.71852 356.47229,-280.02981 " />
    </g>
    <g
       sodipodi:type="inkscape:box3d"
       id="g4194"
       style="fill:#000000;stroke-width:0.1;stroke-miterlimit:4;stroke-dasharray:none"
       inkscape:perspectiveID="#perspective4136"
       inkscape:corner0="0.26132867 : 0.1640632 : 0 : 1"
       inkscape:corner7="-0.24527055 : 0.013086029 : 0.25 : 1">
      <path
         sodipodi:type="inkscape:box3dside"
         id="path4200"
         style="fill:#8686bf;fill-rule:evenodd;stroke:none;stroke-width:1px;stroke-linecap:butt;stroke-linejoin:round;stroke-opacity:1"
         inkscape:box3dsidetype="3"
         d="m 473.69708,578.27757 -261.09159,-104.70895 0,200.04144 261.09159,24.36444 z"
         points="212.60549,473.56862 212.60549,673.61006 473.69708,697.9745 473.69708,578.27757 " />
      <path
         sodipodi:type="inkscape:box3dside"
         id="path4196"
         style="fill:#353564;fill-rule:evenodd;stroke:none;stroke-width:1px;stroke-linecap:butt;stroke-linejoin:round;stroke-opacity:1"
         inkscape:box3dsidetype="6"
         d="m 473.69708,578.27757 0,119.69693 44.72843,-28.41761 0,-99.89698 z"
         points="473.69708,697.9745 518.42551,669.55689 518.42551,569.65991 473.69708,578.27757 " />
      <path
         sodipodi:type="inkscape:box3dside"
         id="path4198"
         style="fill:#4d4d9f;fill-rule:evenodd;stroke:none;stroke-width:1px;stroke-linecap:butt;stroke-linejoin:round;stroke-opacity:1"
         inkscape:box3dsidetype="5"
         d="M 473.69708,578.27757 212.60549,473.56862 344.85228,486.65983 518.42551,569.65991 Z"
         points="212.60549,473.56862 344.85228,486.65983 518.42551,569.65991 473.69708,578.27757 " />
      <path
         sodipodi:type="inkscape:box3dside"
         id="path4206"
         style="fill:#e9e9ff;fill-rule:evenodd;stroke:none;stroke-width:1px;stroke-linecap:butt;stroke-linejoin:round;stroke-opacity:1"
         inkscape:box3dsidetype="11"
         d="m 518.42551,569.65991 -173.57323,-83.00008 0,150.26649 173.57323,32.63057 z"
         points="344.85228,486.65983 344.85228,636.92632 518.42551,669.55689 518.42551,569.65991 " />
      <path
         sodipodi:type="inkscape:box3dside"
         id="path4204"
         style="fill:#afafde;fill-rule:evenodd;stroke:none;stroke-width:1px;stroke-linecap:butt;stroke-linejoin:round;stroke-opacity:1"
         inkscape:box3dsidetype="13"
         d="M 473.69708,697.9745 212.60549,673.61006 344.85228,636.92632 518.42551,669.55689 Z"
         points="212.60549,673.61006 344.85228,636.92632 518.42551,669.55689 473.69708,697.9745 " />
      <path
         sodipodi:type="inkscape:box3dside"
         id="path4202"
         style="fill:#d7d7ff;fill-rule:evenodd;stroke:none;stroke-width:1px;stroke-linecap:butt;stroke-linejoin:round;stroke-opacity:1"
         inkscape:box3dsidetype="14"
         d="m 212.60549,473.56862 0,200.04144 132.24679,-36.68374 0,-150.26649 z"
         points="212.60549,673.61006 344.85228,636.92632 344.85228,486.65983 212.60549,473.56862 " />
    </g>
    <g
       sodipodi:type="inkscape:box3d"
       id="g4208"
       style="fill:#000000;stroke-width:0.1;stroke-miterlimit:4;stroke-dasharray:none"
       inkscape:perspectiveID="#perspective4136"
       inkscape:corner0="-0.26631877 : 0.26070316 : 0 : 1"
       inkscape:corner7="-0.51022876 : 0.17989948 : 0.25 : 1">
      <path
         sodipodi:type="inkscape:box3dside"
         id="path4214"
         style="fill:#8686bf;fill-rule:evenodd;stroke:none;stroke-width:1px;stroke-linecap:butt;stroke-linejoin:round;stroke-opacity:1"
         inkscape:box3dsidetype="3"
         d="m 193.9561,334.37014 -333.025,-199.15459 0,164.98249 333.025,144.30669 z"
         points="-139.0689,135.21555 -139.0689,300.19804 193.9561,444.50473 193.9561,334.37014 " />
      <path
         sodipodi:type="inkscape:box3dside"
         id="path4210"
         style="fill:#353564;fill-rule:evenodd;stroke:none;stroke-width:1px;stroke-linecap:butt;stroke-linejoin:round;stroke-opacity:1"
         inkscape:box3dsidetype="6"
         d="m 193.9561,334.37014 0,110.13459 139.81623,20.75784 0,-82.14417 z"
         points="193.9561,444.50473 333.77233,465.26257 333.77233,383.1184 193.9561,334.37014 " />
      <path
         sodipodi:type="inkscape:box3dside"
         id="path4212"
         style="fill:#4d4d9f;fill-rule:evenodd;stroke:none;stroke-width:1px;stroke-linecap:butt;stroke-linejoin:round;stroke-opacity:1"
         inkscape:box3dsidetype="5"
         d="M 193.9561,334.37014 -139.0689,135.21555 159.38937,267.33936 333.77233,383.1184 Z"
         points="-139.0689,135.21555 159.38937,267.33936 333.77233,383.1184 193.9561,334.37014 " />
      <path
         sodipodi:type="inkscape:box3dside"
         id="path4220"
         style="fill:#e9e9ff;fill-rule:evenodd;stroke:none;stroke-width:1px;stroke-linecap:butt;stroke-linejoin:round;stroke-opacity:1"
         inkscape:box3dsidetype="11"
         d="m 333.77233,383.1184 -174.38296,-115.77904 0,109.22792 174.38296,88.69529 z"
         points="159.38937,267.33936 159.38937,376.56728 333.77233,465.26257 333.77233,383.1184 " />
      <path
         sodipodi:type="inkscape:box3dside"
         id="path4218"
         style="fill:#afafde;fill-rule:evenodd;stroke:none;stroke-width:1px;stroke-linecap:butt;stroke-linejoin:round;stroke-opacity:1"
         inkscape:box3dsidetype="13"
         d="m 193.9561,444.50473 -333.025,-144.30669 298.45827,76.36924 174.38296,88.69529 z"
         points="-139.0689,300.19804 159.38937,376.56728 333.77233,465.26257 193.9561,444.50473 " />
      <path
         sodipodi:type="inkscape:box3dside"
         id="path4216"
         style="fill:#d7d7ff;fill-rule:evenodd;stroke:none;stroke-width:1px;stroke-linecap:butt;stroke-linejoin:round;stroke-opacity:1"
         inkscape:box3dsidetype="14"
         d="m -139.0689,135.21555 0,164.98249 298.45827,76.36924 0,-109.22792 z"
         points="-139.0689,300.19804 159.38937,376.56728 159.38937,267.33936 -139.0689,135.21555 " />
    </g>
    <g
       sodipodi:type="inkscape:box3d"
       id="g4222"
       style="fill:#000000;stroke-width:0.1;stroke-miterlimit:4;stroke-dasharray:none"
       inkscape:perspectiveID="#perspective4266"
       inkscape:corner0="-0.26338405 : 0.16431212 : 0 : 1"
       inkscape:corner7="-0.37574921 : -0.05091993 : 0.25 : 1"
       inkscape:path-effect="#path-effect4264">
      <path
         sodipodi:type="inkscape:box3dside"
         id="path4228"
         style="fill:#8686bf;fill-rule:evenodd;stroke:none;stroke-width:1px;stroke-linecap:butt;stroke-linejoin:round;stroke-opacity:1"
         inkscape:box3dsidetype="3"
         d="M 41.997198,966.54838 76.642165,1221.631 403.58478,1112.1553 319.0672,873.77236 Z m 23.156056,-77.92612 11.548322,85.02755 108.980874,-36.4919 -28.17253,-79.46099 z m 172.409506,0 11.54832,85.02756 108.98088,-36.4919 -28.17253,-79.461 z"
         points="76.642165,1221.631 403.58478,1112.1553 319.0672,873.77236 41.997198,966.54838 " />
      <path
         sodipodi:type="inkscape:box3dside"
         id="path4224"
         style="fill:#353564;fill-rule:evenodd;stroke:none;stroke-width:1px;stroke-linecap:butt;stroke-linejoin:round;stroke-opacity:1"
         inkscape:box3dsidetype="6"
         d="M 41.997198,966.54838 319.0672,873.77236 170.21256,615.03274 -36.650283,684.30011 Z M 65.153254,888.62226 157.50992,857.69692 107.89171,771.45038 38.937426,794.5395 Z m 172.409506,0 92.35667,-30.92534 -49.61821,-86.24654 -68.95429,23.08912 z"
         points="319.0672,873.77236 170.21256,615.03274 -36.650283,684.30011 41.997198,966.54838 " />
      <path
         sodipodi:type="inkscape:box3dside"
         id="path4226"
         style="fill:#4d4d9f;fill-rule:evenodd;stroke:none;stroke-width:1px;stroke-linecap:butt;stroke-linejoin:round;stroke-opacity:1"
         inkscape:box3dsidetype="5"
         d="M 41.997198,966.54838 76.642165,1221.631 -22.020715,830.16293 -36.650283,684.30011 Z M 65.153254,888.62226 76.701576,973.64981 43.813949,843.16044 38.937426,794.5395 Z m 172.409506,0 11.54832,85.02756 -32.88762,-130.48938 -4.87653,-48.62094 z"
         points="76.642165,1221.631 -22.020715,830.16293 -36.650283,684.30011 41.997198,966.54838 " />
      <path
         sodipodi:type="inkscape:box3dside"
         id="path4234"
         style="fill:#e9e9ff;fill-rule:evenodd;stroke:none;stroke-width:1px;stroke-linecap:butt;stroke-linejoin:round;stroke-opacity:1"
         inkscape:box3dsidetype="11"
         d="M -36.650283,684.30011 -22.020715,830.16293 211.42967,751.9928 170.21256,615.03274 Z m 75.587709,110.23939 4.876523,48.62094 77.816801,-26.05671 -13.73904,-45.65335 z m 172.409504,0 4.87653,48.62094 77.81679,-26.05671 -13.73903,-45.65335 z"
         points="-22.020715,830.16293 211.42967,751.9928 170.21256,615.03274 -36.650283,684.30011 " />
      <path
         sodipodi:type="inkscape:box3dside"
         id="path4232"
         style="fill:#afafde;fill-rule:evenodd;stroke:none;stroke-width:1px;stroke-linecap:butt;stroke-linejoin:round;stroke-opacity:1"
         inkscape:box3dsidetype="13"
         d="M 319.0672,873.77236 403.58478,1112.1553 211.42967,751.9928 170.21256,615.03274 Z m -161.55728,-16.07544 28.17253,79.46099 -64.0517,-120.05418 -13.73904,-45.65335 z m 172.40951,0 28.17253,79.461 -64.05171,-120.05419 -13.73903,-45.65335 z"
         points="403.58478,1112.1553 211.42967,751.9928 170.21256,615.03274 319.0672,873.77236 " />
      <path
         sodipodi:type="inkscape:box3dside"
         id="path4230"
         style="fill:#d7d7ff;fill-rule:evenodd;stroke:none;stroke-width:1px;stroke-linecap:butt;stroke-linejoin:round;stroke-opacity:1"
         inkscape:box3dsidetype="14"
         d="M 76.642165,1221.631 403.58478,1112.1553 211.42967,751.9928 -22.020715,830.16293 Z m 0.05941,-247.98119 108.980874,-36.4919 -64.0517,-120.05418 -77.816801,26.05671 z m 172.409504,10e-6 108.98088,-36.4919 -64.05171,-120.05419 -77.81679,26.05671 z"
         points="403.58478,1112.1553 211.42967,751.9928 -22.020715,830.16293 76.642165,1221.631 " />
    </g>
    <g
       sodipodi:type="inkscape:box3d"
       id="g4236"
       style="fill:#000000;stroke-width:0.1;stroke-miterlimit:4;stroke-dasharray:none"
       inkscape:perspectiveID="#perspective4136"
       inkscape:corner0="-0.05562058 : 0.53617917 : 0 : 1"
       inkscape:corner7="-0.25140655 : 0.32717686 : 0.25 : 1">
      <path
         sodipodi:type="inkscape:box3dside"
         id="path4242"
         style="fill:#8686bf;fill-rule:evenodd;stroke:none;stroke-width:1px;stroke-linecap:butt;stroke-linejoin:round;stroke-opacity:1"
         inkscape:box3dsidetype="3"
         d="M 343.15129,131.89083 207.2771,-25.655144 l 0,279.193344 135.87419,99.66443 z"
         points="207.2771,-25.655144 207.2771,253.5382 343.15129,353.20263 343.15129,131.89083 " />
      <path
         sodipodi:type="inkscape:box3dside"
         id="path4238"
         style="fill:#353564;fill-rule:evenodd;stroke:none;stroke-width:1px;stroke-linecap:butt;stroke-linejoin:round;stroke-opacity:1"
         inkscape:box3dsidetype="6"
         d="m 343.15129,131.89083 0,221.3118 83.92291,36.20677 0,-174.9882 z"
         points="343.15129,353.20263 427.0742,389.4094 427.0742,214.4212 343.15129,131.89083 " />
      <path
         sodipodi:type="inkscape:box3dside"
         id="path4240"
         style="fill:#4d4d9f;fill-rule:evenodd;stroke:none;stroke-width:1px;stroke-linecap:butt;stroke-linejoin:round;stroke-opacity:1"
         inkscape:box3dsidetype="5"
         d="M 343.15129,131.89083 207.2771,-25.655144 341.67048,112.49824 427.0742,214.4212 Z"
         points="207.2771,-25.655144 341.67048,112.49824 427.0742,214.4212 343.15129,131.89083 " />
      <path
         sodipodi:type="inkscape:box3dside"
         id="path4248"
         style="fill:#e9e9ff;fill-rule:evenodd;stroke:none;stroke-width:1px;stroke-linecap:butt;stroke-linejoin:round;stroke-opacity:1"
         inkscape:box3dsidetype="11"
         d="m 427.0742,214.4212 -85.40372,-101.92296 0,209.29669 85.40372,67.61447 z"
         points="341.67048,112.49824 341.67048,321.79493 427.0742,389.4094 427.0742,214.4212 " />
      <path
         sodipodi:type="inkscape:box3dside"
         id="path4246"
         style="fill:#afafde;fill-rule:evenodd;stroke:none;stroke-width:1px;stroke-linecap:butt;stroke-linejoin:round;stroke-opacity:1"
         inkscape:box3dsidetype="13"
         d="M 343.15129,353.20263 207.2771,253.5382 341.67048,321.79493 427.0742,389.4094 Z"
         points="207.2771,253.5382 341.67048,321.79493 427.0742,389.4094 343.15129,353.20263 " />
      <path
         sodipodi:type="inkscape:box3dside"
         id="path4244"
         style="fill:#d7d7ff;fill-rule:evenodd;stroke:none;stroke-width:1px;stroke-linecap:butt;stroke-linejoin:round;stroke-opacity:1"
         inkscape:box3dsidetype="14"
         d="m 207.2771,-25.655144 0,279.193344 134.39338,68.25673 0,-209.29669 z"
         points="207.2771,253.5382 341.67048,321.79493 341.67048,112.49824 207.2771,-25.655144 " />
    </g>
    <g
       sodipodi:type="inkscape:box3d"
       id="g4250"
       style="fill:#000000;stroke-width:0.1;stroke-miterlimit:4;stroke-dasharray:none"
       inkscape:perspectiveID="#perspective4136"
       inkscape:corner0="-0.2749843 : 0.52774536 : 0 : 1"
       inkscape:corner7="-0.43855492 : 0.4471171 : 0.25 : 1">
      <path
         sodipodi:type="inkscape:box3dside"
         id="path4256"
         style="fill:#8686bf;fill-rule:evenodd;stroke:none;stroke-width:1px;stroke-linecap:butt;stroke-linejoin:round;stroke-opacity:1"
         inkscape:box3dsidetype="3"
         d="m 185.9635,-38.735654 -197.150802,-225.207126 0,143.60846 L 185.9635,72.473328 Z"
         points="-11.187302,-263.94278 -11.187302,-120.33432 185.9635,72.473328 185.9635,-38.735654 " />
      <path
         sodipodi:type="inkscape:box3dside"
         id="path4252"
         style="fill:#353564;fill-rule:evenodd;stroke:none;stroke-width:1px;stroke-linecap:butt;stroke-linejoin:round;stroke-opacity:1"
         inkscape:box3dsidetype="6"
         d="m 185.9635,-38.735654 0,111.208982 143.1082,116.333452 0,-82.69431 z"
         points="185.9635,72.473328 329.0717,188.80678 329.0717,106.11247 185.9635,-38.735654 " />
      <path
         sodipodi:type="inkscape:box3dside"
         id="path4254"
         style="fill:#4d4d9f;fill-rule:evenodd;stroke:none;stroke-width:1px;stroke-linecap:butt;stroke-linejoin:round;stroke-opacity:1"
         inkscape:box3dsidetype="5"
         d="M 185.9635,-38.735654 -11.187302,-263.94278 221.50922,-20.51167 329.0717,106.11247 Z"
         points="-11.187302,-263.94278 221.50922,-20.51167 329.0717,106.11247 185.9635,-38.735654 " />
      <path
         sodipodi:type="inkscape:box3dside"
         id="path4262"
         style="fill:#e9e9ff;fill-rule:evenodd;stroke:none;stroke-width:1px;stroke-linecap:butt;stroke-linejoin:round;stroke-opacity:1"
         inkscape:box3dsidetype="11"
         d="m 329.0717,106.11247 -107.56248,-126.62414 0,99.36379 107.56248,109.95466 z"
         points="221.50922,-20.51167 221.50922,78.85212 329.0717,188.80678 329.0717,106.11247 " />
      <path
         sodipodi:type="inkscape:box3dside"
         id="path4260"
         style="fill:#afafde;fill-rule:evenodd;stroke:none;stroke-width:1px;stroke-linecap:butt;stroke-linejoin:round;stroke-opacity:1"
         inkscape:box3dsidetype="13"
         d="M 185.9635,72.473328 -11.187302,-120.33432 221.50922,78.85212 329.0717,188.80678 Z"
         points="-11.187302,-120.33432 221.50922,78.85212 329.0717,188.80678 185.9635,72.473328 " />
      <path
         sodipodi:type="inkscape:box3dside"
         id="path4258"
         style="fill:#d7d7ff;fill-rule:evenodd;stroke:none;stroke-width:1px;stroke-linecap:butt;stroke-linejoin:round;stroke-opacity:1"
         inkscape:box3dsidetype="14"
         d="m -11.187302,-263.94278 0,143.60846 232.696522,199.18644 0,-99.36379 z"
         points="-11.187302,-120.33432 221.50922,78.85212 221.50922,-20.51167 -11.187302,-263.94278 " />
    </g>
    <path
       sodipodi:type="spiral"
       style="fill:none;fill-rule:evenodd;stroke:#000000;stroke-width:1px;stroke-linecap:butt;stroke-linejoin:miter;stroke-opacity:1"
       id="path4268"
       sodipodi:cx="555.58392"
       sodipodi:cy="838.20984"
       sodipodi:expansion="1"
       sodipodi:revolution="3"
       sodipodi:radius="109.86076"
       sodipodi:argument="-20.982851"
       sodipodi:t0="0"
       d="m 555.58392,838.20984 c -2.93755,-4.65956 4.83171,-6.25863 7.7445,-4.88241 7.89348,3.72947 6.81648,14.67869 2.02032,20.37141 -8.5792,10.18293 -24.37437,8.02345 -32.99831,-0.84177 -12.65599,-13.01007 -9.29885,-34.21338 3.70385,-45.62523 17.33056,-15.21019 44.10482,-10.60535 58.25214,6.56595 17.80295,21.60832 11.92835,54.02161 -9.42803,70.87904 -25.86544,20.41661 -63.95278,13.26097 -83.50596,-12.29012 -23.04274,-30.11107 -14.59964,-73.8929 15.15221,-96.13286 34.34969,-25.67692 83.83901,-15.94236 108.75977,18.01429 28.31655,38.58371 17.28789,93.78932 -20.87638,121.38668 C 561.59348,946.61489 500.66534,934.2903 470.39444,891.91635 436.788,844.87325 450.40986,778.21799 496.995,745.27586" />
    <path
       style="fill:#00cb00;fill-rule:evenodd;stroke:none;stroke-width:1px;stroke-linecap:butt;stroke-linejoin:miter;stroke-opacity:1;fill-opacity:1"
       d="m 84.371168,543.37955 c -5.5e-5,-2e-4 51.527702,184.90049 121.256662,318.54765 17.43332,33.41386 36.01323,63.64144 55.22103,86.9793 19.19858,23.32667 39.07094,39.82749 59.10265,45.69393 20.08386,5.88167 40.2499,1.04982 59.91467,-18.08722 19.63755,-19.11058 38.79904,-52.49992 56.99096,-103.79102 72.73096,-205.06091 109.60135,-308.60105 128.28895,-360.87582 9.34384,-26.1375 14.14176,-39.45801 16.60359,-46.24384 1.23097,-3.39307 1.87755,-5.15141 2.21615,-6.06093 0.16938,-0.45494 0.2612,-0.69618 0.31031,-0.82279 0.0484,-0.12477 0.0609,-0.14592 0.0392,-0.10269 l -0.31363,-0.70544 c -0.001,-3.9e-4 -153.04951,-42.42962 -299.28254,-75.01003 0,0 -1.7e-4,-4e-5 -1.7e-4,-4e-5 -73.11193,-16.28918 -144.54153,-30.12149 -194.293611,-34.95455 -24.858832,-2.41486 -44.372336,-2.59172 -55.985306,0.33241 -5.788284,1.45749 -9.763643,3.72097 -11.35368,7.01971 -1.608001,3.336 -0.678597,7.48904 2.766394,12.46516 l 3.3e-5,4e-5 c 54.462855,78.66857 58.500983,175.51728 58.500377,175.50276 z m 0.981213,-0.15505 c -6.06e-4,-0.0145 -4.043698,-97.11509 -58.677319,-176.03032 l 1.12e-4,10e-6 c -3.373628,-4.87289 -4.054134,-8.62742 -2.687917,-11.46181 1.384182,-2.87166 4.967172,-5.0414 10.696988,-6.48416 11.423298,-2.87637 30.784884,-2.72178 55.644497,-0.30685 49.684738,4.82652 121.065298,18.6471 194.172828,34.93531 0,0 1.8e-4,4e-5 1.8e-4,4e-5 146.20613,32.57442 299.23426,74.99801 299.23284,74.99762 a 0.5,0.5 0 0 0 -0.31363,-0.70544 c -0.0216,0.0432 -0.0249,0.0536 -0.0772,0.18832 -0.0515,0.13283 -0.14515,0.37891 -0.31512,0.83548 -0.34009,0.91349 -0.98777,2.67489 -2.21905,6.06878 -2.46266,6.7881 -7.26119,20.11035 -16.60516,46.24823 -18.68805,52.27603 -55.55877,155.81709 -128.28976,360.87808 -18.17359,51.23943 -37.2716,84.45699 -56.74591,103.40872 -19.44712,18.92523 -39.24524,23.61088 -58.93619,17.84425 C 300.48955,987.85884 280.7766,971.5455 261.62098,948.27103 242.47454,925.00771 223.93135,894.84711 206.51441,861.46463 136.84231,727.92644 85.334515,543.11129 85.33446,543.11109 Z"
       id="path4270"
       inkscape:path-effect="#path-effect4272"
       inkscape:original-d="m 84.852814,543.24532 c 0,0 206.071116,739.43168 351.533086,329.30973 145.46197,-410.12193 147.48227,-414.16254 147.48227,-414.16254 0,0 -612.152441,-169.70563 -557.604204,-90.91373 54.548238,78.7919 58.588848,175.76654 58.588848,175.76654 z"
       inkscape:connector-curvature="0" />
  </g>
</svg>
